test/.Xil/vivado_lab-13535-ignitarium-H110M-H/hw_ila_data_2/zip_work/waveform.vcd
$date
        2020-Oct-23 12:49:59
$end
$version
        Vivado Lab Edition v2019.2 (64-bit)
$end
$timescale
        1ps
$end
$scope module dut $end
$var reg 6 " Delonixt_top/Delonix_i/s2mm_ptr_2k_hdmi_1 [5:0] $end
$var reg 6 ( Delonixt_top/Delonix_i/hdmi_4k_vdma/mm2s_frame_ptr_out [5:0] $end
$var reg 1 . Delonixt_top/Delonix_i/ARESETN_1 $end
$var reg 1 / Delonixt_top/Delonix_i/axi_hdmi_interconnect_M00_AXI_AWREADY $end
$var reg 1 0 Delonixt_top/Delonix_i/axi_hdmi_interconnect_M00_AXI_AWVALID $end
$var reg 1 1 Delonixt_top/Delonix_i/axi_hdmi_interconnect_M00_AXI_BREADY $end
$var reg 1 2 Delonixt_top/Delonix_i/axi_hdmi_interconnect_M00_AXI_WREADY $end
$var reg 1 3 Delonixt_top/Delonix_i/axi_hdmi_interconnect_M00_AXI_WVALID $end
$var reg 1 4 Delonixt_top/Delonix_i/Delay_delayoutn $end
$var reg 1 5 Delonixt_top/Delonix_i/hdmi_4k_vdma_M_AXIS_MM2S_TLAST $end
$var reg 1 6 Delonixt_top/Delonix_i/hdmi_4k_vdma_M_AXIS_MM2S_TREADY $end
$var reg 1 7 Delonixt_top/Delonix_i/hdmi_4k_vdma_M_AXIS_MM2S_TUSER $end
$var reg 1 8 Delonixt_top/Delonix_i/hdmi_4k_vdma_M_AXIS_MM2S_TVALID $end
$var reg 1 9 Delonixt_top/Delonix_i/hdmi_reset_hdmi_axil_peripheral_eresetn $end
$var reg 1 : Delonixt_top/Delonix_i/hdmi_reset_hdmi_peripheral_vpssresetn $end
$var reg 1 ; Delonixt_top/Delonix_i/hdmi_reset_hdmi_videoclk_peripheral_vpssresetn $end
$var reg 1 < Delonixt_top/Delonix_i/hdmi_4k_vdma/mm2s_introut $end
$var reg 1 = Delonixt_top/Delonix_i/rx_enable_2k1_Dout $end
$var reg 1 > Delonixt_top/Delonix_i/rx_interleaved_convr_m_axis_interleaved_TLAST $end
$var reg 1 ? Delonixt_top/Delonix_i/rx_interleaved_convr_m_axis_interleaved_TREADY $end
$var reg 1 @ Delonixt_top/Delonix_i/rx_interleaved_convr_m_axis_interleaved_TUSER $end
$var reg 1 A Delonixt_top/Delonix_i/rx_interleaved_convr_m_axis_interleaved_TVALID $end
$var reg 1 B Delonixt_top/Delonix_i/rx_interleaved_convr_o_fifo_rst_trig $end
$var reg 1 C Delonixt_top/Delonix_i/rx_mode_locked_1 $end
$var reg 1 D Delonixt_top/Delonix_i/rx_path_reset_rx_rxoutclk0_fifo_peripheral_reset $end
$var reg 1 E Delonixt_top/Delonix_i/rx_path_reset_rx_rxoutclk0_peripheral_rxreset $end
$var reg 1 F Delonixt_top/Delonix_i/rx_path_reset_rx_videoclk_fifo_peripheral_ereset $end
$var reg 1 G Delonixt_top/Delonix_i/rx_path_reset_rx_videoclk_peripheral_eresetn $end
$var reg 1 H Delonixt_top/Delonix_i/rx_path_reset_rx_videoclk_peripheral_rxreset $end
$var reg 1 I Delonixt_top/Delonix_i/rx_path_reset_rx_videoclk_peripheral_rxresetn $end
$var reg 1 J Delonixt_top/Delonix_i/SDI_RX_vid_v_blank $end
$var reg 1 K Delonixt_top/Delonix_i/SDI_RX_video_out_2k_interleaved_TLAST $end
$var reg 1 L Delonixt_top/Delonix_i/SDI_RX_video_out_2k_interleaved_TREADY $end
$var reg 1 M Delonixt_top/Delonix_i/SDI_RX_video_out_2k_interleaved_TUSER $end
$var reg 1 N Delonixt_top/Delonix_i/SDI_RX_video_out_2k_interleaved_TVALID $end
$var reg 1 O Delonixt_top/Delonix_i/sys_rst $end
$var reg 1 P Delonixt_top/Delonix_i/tx_path_reset_1 $end
$var reg 1 Q Delonixt_top/Delonix_i/HDMI_TX/v_proc_ss_0_m_axis_TLAST $end
$var reg 1 R Delonixt_top/Delonix_i/HDMI_TX/v_proc_ss_0_m_axis_TREADY $end
$var reg 1 S Delonixt_top/Delonix_i/HDMI_TX/v_proc_ss_0_m_axis_TUSER $end
$var reg 1 T Delonixt_top/Delonix_i/HDMI_TX/v_proc_ss_0_m_axis_TVALID $end
$var reg 1 U Delonixt_top/Delonix_i/vpssout_resetn_1 $end
$var reg 1 V Delonixt_top/Delonix_i/programming_logic_config/xlconstant_0_dout3 $end
$var reg 1 W _TRIGGER $end
$var reg 1 X _WINDOW $end
$var reg 1 Y _GAP $end
$upscope $end
$enddefinitions $end
#0
$dumpvars
b1001 "
b1000 (
1.
1/
00
11
02
13
14
05
16
07
18
19
1:
1;
0<
1=
0>
1?
0@
0A
0B
1C
0D
0E
0F
1G
0H
1I
0J
0K
1L
0M
1N
0O
0P
0Q
1R
0S
1T
1U
1V
0W
1X
0Y
$end
#1
06
#2
16
#3
06
#4
16
#5
06
#6
16
#7
06
#8
16
#9
06
#10
16
#11
06
#12
16
#13
06
#14
16
#15
06
#16
16
#17
06
#18
16
0R
#19
06
1R
#20
16
#21
06
#22
16
#23
06
#24
16
#25
06
#26
16
#27
06
#28
16
#29
06
#30
16
#31
06
#33
16
#34
06
#35
16
#36
06
#37
12
16
#38
03
06
#39
16
#40
06
#41
16
#42
06
#43
16
#44
06
#45
16
#46
06
#47
16
#48
06
#49
16
#50
06
#51
16
#52
06
#53
16
#54
06
#55
16
#56
06
#57
16
#58
06
#59
16
#60
06
#61
16
#62
06
#63
16
#64
06
#65
16
#66
06
#67
16
#68
06
#69
16
#70
06
#71
16
#72
06
#73
16
#74
06
#75
16
#76
06
#77
16
#78
06
#79
16
#80
06
#81
16
#82
06
#83
16
#84
06
#85
16
#86
06
#87
16
#88
06
#89
16
#90
06
#91
16
#92
06
#93
16
#94
06
#95
16
#96
06
#97
16
#98
06
#99
16
#100
15
06
1W
#101
16
#102
05
06
#103
16
#104
06
#105
16
#106
06
#107
16
#108
06
#109
16
#110
06
#116
16
#117
0R
#118
1R
#119
06
#123
16
#127
06
#144
02
#146
01
#147
11
#218
0R
#219
1R
#317
0R
#318
1R
#320
1Q
#321
0T
#325
0Q
#339
1T
#404
0R
#528
1R
#616
0R
#617
1R
#717
0R
#718
1R
#818
0R
#819
1R
#919
0R
#920
1R
#1018
0R
#1019
1R
#1117
0R
#1118
1R
#1218
0R
#1219
1R
#1253
16
#1262
06
#1265
16
#1276
06
#1277
16
#1278
06
#1279
16
#1280
06
#1281
16
#1282
06
#1283
16
#1284
06
#1285
16
#1286
06
#1287
16
#1288
06
#1289
16
#1290
06
#1291
16
#1292
06
#1293
16
#1294
06
#1295
16
#1296
06
#1297
16
#1298
06
#1299
16
#1300
06
#1301
16
#1302
06
#1303
16
#1304
06
#1305
16
#1306
06
#1307
16
#1308
06
#1309
16
#1310
06
#1311
16
#1312
06
#1313
16
#1314
06
#1315
16
#1316
06
#1317
16
0R
#1318
06
1R
#1319
16
#1320
06
#1321
16
#1322
06
#1323
16
#1324
06
#1325
16
#1326
06
#1327
16
#1328
06
#1329
16
#1330
06
#1332
16
#1333
06
#1334
16
#1335
06
#1336
16
#1337
06
#1338
16
#1339
06
#1340
16
#1341
06
#1342
16
#1343
06
#1344
16
#1345
06
#1346
16
#1347
06
#1348
16
#1349
06
#1350
16
#1351
06
#1352
16
#1353
06
#1354
16
#1355
06
#1356
16
#1357
06
#1358
16
#1359
06
#1360
16
#1361
06
#1362
16
#1363
06
#1364
16
#1365
06
#1366
16
#1367
06
#1368
16
#1369
06
#1370
16
#1371
06
#1372
16
#1373
06
#1374
16
#1375
06
#1376
16
#1377
06
#1378
16
1K
#1379
06
0N
#1380
16
#1381
06
#1382
16
#1383
06
#1384
16
#1385
06
1A
#1386
16
#1387
06
#1388
16
#1389
06
#1390
16
#1391
06
#1392
16
#1393
06
#1394
16
#1395
06
#1396
16
#1397
06
#1398
16
#1399
06
#1400
16
#1401
06
#1407
16
#1410
06
#1418
16
0R
#1419
1R
#1424
06
#1427
0/
#1428
1/
12
13
#1429
03
#1431
1Q
#1432
0T
#1435
02
#1436
0Q
#1437
01
#1438
11
#1442
16
#1446
06
#1448
16
#1449
06
#1450
16
#1451
06
1T
#1452
16
#1453
06
#1454
16
#1455
06
#1456
16
#1457
06
#1458
16
#1459
06
#1460
16
#1461
06
#1462
16
#1463
06
#1464
16
#1465
06
#1466
16
#1467
06
#1468
16
#1469
06
#1470
16
#1471
06
#1472
16
#1473
06
#1474
16
#1475
06
#1476
16
#1477
06
#1478
16
#1479
06
#1480
16
#1481
06
#1482
16
#1483
06
#1484
16
#1485
06
#1486
16
#1487
06
#1488
16
#1489
06
#1490
16
#1491
06
#1492
16
#1493
06
#1494
16
#1495
06
#1496
16
#1497
06
#1498
16
#1499
06
#1500
16
#1501
06
#1502
16
#1503
06
#1504
16
#1505
06
#1506
16
#1507
06
#1508
16
#1509
06
#1510
16
#1511
06
#1512
16
#1513
06
#1514
16
#1515
06
#1516
16
0R
#1517
06
#1518
16
#1519
06
#1520
16
#1521
06
#1522
16
#1523
06
#1524
16
#1525
06
#1526
16
#1527
06
#1528
16
#1529
06
#1639
1R
#1653
16
#1654
06
#1655
16
#1656
06
#1657
16
#1658
06
#1659
16
#1660
06
#1661
16
#1662
06
0K
1N
#1663
16
#1664
06
#1665
16
#1666
06
#1667
16
#1668
06
#1669
16
#1670
06
#1671
16
#1672
06
#1673
16
#1674
06
#1675
16
#1676
06
#1677
16
#1678
06
#1679
16
#1680
06
#1681
16
#1682
06
#1683
16
#1684
06
#1685
16
#1686
06
#1687
16
#1688
06
#1689
16
#1690
06
#1691
16
#1692
06
#1693
16
#1694
06
#1695
16
#1696
06
#1697
16
#1698
06
#1699
16
#1700
06
#1701
16
#1702
06
#1703
16
#1704
06
#1705
16
#1706
06
#1707
16
#1708
06
#1709
16
#1710
06
#1711
16
#1712
06
#1713
16
#1714
06
#1715
16
#1716
06
#1717
16
0R
#1718
0/
06
1R
#1719
1/
12
13
16
#1720
03
06
#1721
16
#1722
06
#1723
16
#1724
06
#1725
16
#1726
06
#1727
16
#1728
06
#1729
16
#1730
06
#1732
16
#1733
06
#1734
16
#1735
06
#1736
16
#1737
06
#1738
16
#1739
06
#1740
16
#1741
06
#1742
16
#1743
06
#1744
16
#1745
06
#1746
16
#1747
06
#1748
16
#1749
06
#1750
16
#1751
06
#1752
16
#1753
06
#1754
16
#1755
06
#1756
16
#1757
06
#1758
16
#1759
06
#1760
16
#1761
06
#1762
16
#1763
06
#1764
16
#1765
06
#1766
16
#1767
06
#1768
16
#1769
02
06
#1770
13
16
#1771
12
06
#1772
03
16
#1773
06
#1774
16
#1775
06
#1776
16
#1777
06
#1778
16
#1779
06
#1780
16
#1781
06
#1782
16
#1783
06
#1784
16
#1785
06
#1786
16
#1787
06
#1788
16
#1789
06
#1790
16
#1791
06
#1792
16
#1793
06
#1794
16
#1795
06
#1796
16
#1797
06
#1798
16
#1799
06
#1800
16
#1801
06
#1802
16
#1803
06
#1804
16
#1805
06
#1806
16
#1807
06
#1808
16
#1809
06
#1810
16
#1811
06
#1812
16
#1813
06
#1814
16
#1815
06
#1816
16
#1817
06
#1818
16
0R
#1819
06
1R
#1820
16
#1821
06
#1822
16
#1823
06
#1824
16
#1825
06
#1826
16
#1827
06
#1828
16
#1829
06
#1830
16
#1831
06
#1833
16
#1834
06
#1835
16
#1836
06
#1837
16
#1838
06
#1839
16
#1840
06
#1841
16
#1842
06
#1843
16
#1844
06
#1845
16
#1846
06
#1847
02
16
#1848
06
#1849
01
16
#1850
11
06
#1851
16
#1852
06
#1853
16
#1854
06
#1855
16
#1856
06
#1857
16
#1858
06
#1859
16
#1860
06
#1861
16
#1862
06
#1863
16
#1864
06
1>
#1865
16
0>
0A
#1866
06
#1867
16
#1868
06
#1869
16
#1870
06
#1871
16
#1872
06
#1873
16
#1874
06
#1875
16
#1876
06
#1877
16
#1878
06
#1879
16
#1880
06
#1881
16
#1882
06
#1883
16
#1884
06
#1885
16
#1886
06
#1887
16
#1888
0/
06
#1889
1/
12
13
16
#1890
03
06
#1891
16
#1892
06
#1893
16
#1894
06
#1895
16
#1896
06
#1897
16
#1898
06
#1899
16
#1900
06
#1901
16
#1902
06
#1903
16
#1904
06
#1905
16
#1906
06
#1907
16
#1908
06
#1909
16
#1910
06
#1911
16
#1912
06
#1913
16
#1914
06
#1915
16
#1916
06
#1917
16
0R
#1918
06
1R
#1919
16
#1920
06
#1921
16
#1922
06
#1923
02
16
#1924
13
06
#1925
16
#1926
06
#1927
16
#1928
06
#1929
16
#1930
06
#1932
16
#1933
06
#1934
16
#1935
06
#1936
16
#1937
06
#1938
16
#1939
06
#1940
16
#1941
06
#1942
16
#1943
06
#1944
16
#1945
06
#1946
16
#1947
06
#1948
16
#1949
06
#1950
16
#1951
06
#1952
16
#1953
06
#1954
16
#1955
06
#1956
16
#1957
06
#1958
16
#1959
06
#1960
16
#1961
06
#1962
16
#1963
06
#1964
16
#1965
06
#1966
16
#1967
06
#1968
16
#1969
06
#1970
12
03
16
#1971
06
#1972
16
#1973
06
#1974
16
#1975
06
#1976
16
#1977
06
#1978
16
#1979
06
#1980
16
#1981
06
#1982
16
#1983
06
#1984
0/
16
#1985
1/
06
#1986
16
#1987
06
#1988
02
16
#1989
13
06
#1990
16
#1991
06
#1992
16
#1993
06
#1994
16
#1995
06
#1996
16
#1997
06
#1998
16
#1999
06
#2000
16
#2001
06
#2002
16
#2003
06
#2004
16
#2005
06
#2006
16
#2007
06
#2008
16
#2009
06
#2010
16
#2011
06
#2012
16
#2013
06
#2014
16
#2015
06
#2016
16
#2017
06
#2018
16
0R
#2019
06
1R
#2020
16
#2021
06
#2022
16
#2023
06
#2024
16
#2025
06
#2026
16
#2027
06
#2028
16
#2029
06
#2030
16
#2031
06
#2032
12
03
#2033
16
#2034
06
#2035
16
#2036
06
#2037
16
#2038
06
#2039
16
#2040
06
#2041
16
#2042
06
#2043
16
#2044
06
#2045
16
#2046
06
#2047
16
